## Interface: 30300
## Title: Carbonite 5.073
## Version: 5.073
## Notes: Released Under GPL
## DefaultState: Enabled
## LoadOnDemand: 0
## SavedVariables: NxData, NxCombatOpts, NxMapOpts
## SavedVariablesPerCharacter: NxCData

Localization.lua
NxLocalization.lua
Carbonite.lua
NxUI.lua
NxHelp.lua
NxOptions.lua
NxCom.lua
NxFav.lua
NxHUD.lua
NxInfo.lua
NxMapData.lua
NxMap.lua
NxMapGuide.lua
NxQuest.lua
NxSocial.lua
NxTravel.lua
NxWarehouse.lua
NxSec.lua
NxTimer.lua
MapWorldHotspots.lua
Data\data.xml
ZoneConnections.lua
Zones.lua
Carbonite.xml
